{
    "name": "CoreMedia",
    "alias": "core-media",
    "description": "",
    "keywords": [],
    "active": 1,
    "order": 0,
    "providers": [
        "Pta\\CoreMedia\\Providers\\PackageServiceProvider"
    ],
    "aliases":{},
    "files": [
     
    ]
}